<svg width="23" height="16" viewBox="0 0 23 16" fill="none" xmlns="http://www.w3.org/2000/svg">
<g clip-path="url(#clip0)">
<path d="M1.33452 7.99289C2.48541 8.17451 3.65381 8.20777 4.8127 8.09191C6.70989 7.908 8.71706 7.70995 9.45944 8.61534C10.6967 10.1573 7.61724 14.4297 7.93344 14.6419C8.24964 14.8541 9.80314 12.5906 11.1367 9.74709C12.0715 7.73824 12.6077 6.59236 12.209 6.04063C11.5354 5.22012 9.45944 6.50747 4.64773 6.77626C3.38293 6.77626 2.3656 6.77626 1.89818 6.16795C1.18329 5.17768 2.20063 3.48007 1.98066 3.3386C1.7607 3.19713 -0.672655 6.43674 0.193454 7.56848C0.344679 7.76654 0.578391 7.87971 1.33452 7.99289Z" fill="#ABB5BE"/>
<path d="M11.6857 12.7321L12.4556 11.8408C13.066 10.6977 13.6167 9.52187 14.1053 8.3183C14.3469 7.46311 14.8723 6.7222 15.5901 6.22457C16.1871 5.92556 16.8561 5.81247 17.5147 5.8992C20.0168 6.01237 20.9792 7.31387 21.8728 6.7763C22.5464 6.36604 22.6014 5.2343 22.6289 4.61184C22.6588 3.52163 22.3819 2.44576 21.8315 1.5137C21.0892 0.480984 20.2505 -0.0848872 20.1268 -6.5444e-06C20.7724 1.14433 21.149 2.42813 21.2266 3.74889C21.2266 4.38549 21.1441 5.50309 20.4705 5.91334C19.5769 6.45092 18.6146 5.14942 16.1125 5.03624C15.454 4.95748 14.7872 5.07021 14.1878 5.36162C13.4699 5.86539 12.9449 6.61069 12.703 7.46949C11.6403 10.1418 10.2546 12.6656 8.5787 14.9814C8.24875 15.42 7.96005 15.7736 7.76758 16H8.08378C9.37798 15.025 10.5836 13.9312 11.6857 12.7321Z" fill="#ABB5BE"/>
<path d="M22.6284 4.59767C22.6284 5.22013 22.5459 6.35187 21.8723 6.76212C20.9787 7.28555 20.0163 5.9982 17.5143 5.88502C16.8556 5.7983 16.1866 5.91139 15.5896 6.2104C14.8718 6.70803 14.3464 7.44894 14.1048 8.30412C13.6162 9.50769 13.0656 10.6836 12.4551 11.8267C14.4348 9.42172 14.6685 8.1768 16.0157 7.99289C17.6655 7.78069 18.5453 9.40757 20.415 8.95487C21.1046 8.74332 21.7141 8.31856 22.161 7.73825C22.549 7.17479 22.8106 6.52978 22.9271 5.84971C23.0436 5.16964 23.012 4.47145 22.8346 3.80545C22.6665 2.97536 22.324 2.19316 21.831 1.51367C22.3789 2.44166 22.6557 3.51224 22.6284 4.59767Z" fill="#ABB5BE"/>
</g>
<defs>
<clipPath id="clip0">
<rect width="23" height="16" fill="white"/>
</clipPath>
</defs>
</svg>
